%!PS-Adobe-3.0 EPSF-3.0
%%Title: results/node_distribution/1_74.eps
%%Creator: matplotlib version 2.1.2, http://matplotlib.org/
%%CreationDate: Mon Apr  9 00:49:55 2018
%%Orientation: portrait
%%BoundingBox: -198 108 810 684
%%EndComments
%%BeginProlog
/mpldict 8 dict def
mpldict begin
/m { moveto } bind def
/l { lineto } bind def
/r { rlineto } bind def
/c { curveto } bind def
/cl { closepath } bind def
/box {
m
1 index 0 r
0 exch r
neg 0 r
cl
} bind def
/clipbox {
box
clip
newpath
} bind def
%!PS-Adobe-3.0 Resource-Font
%%Title: DejaVu Sans
%%Copyright: Copyright (c) 2003 by Bitstream, Inc. All Rights Reserved. Copyright (c) 2006 by Tavmjong Bah. All Rights Reserved. DejaVu changes are in public domain 
%%Creator: Converted from TrueType to type 3 by PPR
25 dict begin
/_d{bind def}bind def
/_m{moveto}_d
/_l{lineto}_d
/_cl{closepath eofill}_d
/_c{curveto}_d
/_sc{7 -1 roll{setcachedevice}{pop pop pop pop pop pop}ifelse}_d
/_e{exec}_d
/FontName /DejaVuSans def
/PaintType 0 def
/FontMatrix[.001 0 0 .001 0 0]def
/FontBBox[-1021 -463 1793 1232]def
/FontType 3 def
/Encoding [ /space /period /zero /one /two /three /four /five /six /eight /D /N /O /a /b /d /e /f /i /l /n /o /p /r /s /t /u /y ] def
/FontInfo 10 dict dup begin
/FamilyName (DejaVu Sans) def
/FullName (DejaVu Sans) def
/Notice (Copyright (c) 2003 by Bitstream, Inc. All Rights Reserved. Copyright (c) 2006 by Tavmjong Bah. All Rights Reserved. DejaVu changes are in public domain ) def
/Weight (Book) def
/Version (Version 2.35) def
/ItalicAngle 0.0 def
/isFixedPitch false def
/UnderlinePosition -130 def
/UnderlineThickness 90 def
end readonly def
/CharStrings 29 dict dup begin
/.notdef 0 def
/space{318 0 0 0 0 0 _sc
}_d
/period{318 0 107 0 210 124 _sc
107 124 _m
210 124 _l
210 0 _l
107 0 _l
107 124 _l
_cl}_d
/zero{636 0 66 -13 570 742 _sc
318 664 _m
267 664 229 639 203 589 _c
177 539 165 464 165 364 _c
165 264 177 189 203 139 _c
229 89 267 64 318 64 _c
369 64 407 89 433 139 _c
458 189 471 264 471 364 _c
471 464 458 539 433 589 _c
407 639 369 664 318 664 _c
318 742 _m
399 742 461 709 505 645 _c
548 580 570 486 570 364 _c
570 241 548 147 505 83 _c
461 19 399 -13 318 -13 _c
236 -13 173 19 130 83 _c
87 147 66 241 66 364 _c
66 486 87 580 130 645 _c
173 709 236 742 318 742 _c
_cl}_d
/one{636 0 110 0 544 729 _sc
124 83 _m
285 83 _l
285 639 _l
110 604 _l
110 694 _l
284 729 _l
383 729 _l
383 83 _l
544 83 _l
544 0 _l
124 0 _l
124 83 _l
_cl}_d
/two{{636 0 73 0 536 742 _sc
192 83 _m
536 83 _l
536 0 _l
73 0 _l
73 83 _l
110 121 161 173 226 239 _c
290 304 331 346 348 365 _c
380 400 402 430 414 455 _c
426 479 433 504 433 528 _c
433 566 419 598 392 622 _c
365 646 330 659 286 659 _c
255 659 222 653 188 643 _c
154 632 117 616 78 594 _c
78 694 _l
118 710 155 722 189 730 _c
223 738 255 742 284 742 _c
}_e{359 742 419 723 464 685 _c
509 647 532 597 532 534 _c
532 504 526 475 515 449 _c
504 422 484 390 454 354 _c
446 344 420 317 376 272 _c
332 227 271 164 192 83 _c
_cl}_e}_d
/three{{636 0 76 -13 556 742 _sc
406 393 _m
453 383 490 362 516 330 _c
542 298 556 258 556 212 _c
556 140 531 84 482 45 _c
432 6 362 -13 271 -13 _c
240 -13 208 -10 176 -4 _c
144 1 110 10 76 22 _c
76 117 _l
103 101 133 89 166 81 _c
198 73 232 69 268 69 _c
330 69 377 81 409 105 _c
441 129 458 165 458 212 _c
458 254 443 288 413 312 _c
383 336 341 349 287 349 _c
}_e{202 349 _l
202 430 _l
291 430 _l
339 430 376 439 402 459 _c
428 478 441 506 441 543 _c
441 580 427 609 401 629 _c
374 649 336 659 287 659 _c
260 659 231 656 200 650 _c
169 644 135 635 98 623 _c
98 711 _l
135 721 170 729 203 734 _c
235 739 266 742 296 742 _c
370 742 429 725 473 691 _c
517 657 539 611 539 553 _c
539 513 527 479 504 451 _c
481 423 448 403 406 393 _c
_cl}_e}_d
/four{636 0 49 0 580 729 _sc
378 643 _m
129 254 _l
378 254 _l
378 643 _l
352 729 _m
476 729 _l
476 254 _l
580 254 _l
580 172 _l
476 172 _l
476 0 _l
378 0 _l
378 172 _l
49 172 _l
49 267 _l
352 729 _l
_cl}_d
/five{{636 0 77 -13 549 729 _sc
108 729 _m
495 729 _l
495 646 _l
198 646 _l
198 467 _l
212 472 227 476 241 478 _c
255 480 270 482 284 482 _c
365 482 429 459 477 415 _c
525 370 549 310 549 234 _c
549 155 524 94 475 51 _c
426 8 357 -13 269 -13 _c
238 -13 207 -10 175 -6 _c
143 -1 111 6 77 17 _c
77 116 _l
106 100 136 88 168 80 _c
199 72 232 69 267 69 _c
}_e{323 69 368 83 401 113 _c
433 143 450 183 450 234 _c
450 284 433 324 401 354 _c
368 384 323 399 267 399 _c
241 399 214 396 188 390 _c
162 384 135 375 108 363 _c
108 729 _l
_cl}_e}_d
/six{{636 0 70 -13 573 742 _sc
330 404 _m
286 404 251 388 225 358 _c
199 328 186 286 186 234 _c
186 181 199 139 225 109 _c
251 79 286 64 330 64 _c
374 64 409 79 435 109 _c
461 139 474 181 474 234 _c
474 286 461 328 435 358 _c
409 388 374 404 330 404 _c
526 713 _m
526 623 _l
501 635 476 644 451 650 _c
425 656 400 659 376 659 _c
310 659 260 637 226 593 _c
}_e{192 549 172 482 168 394 _c
187 422 211 444 240 459 _c
269 474 301 482 336 482 _c
409 482 467 459 509 415 _c
551 371 573 310 573 234 _c
573 159 550 99 506 54 _c
462 9 403 -13 330 -13 _c
246 -13 181 19 137 83 _c
92 147 70 241 70 364 _c
70 479 97 571 152 639 _c
206 707 280 742 372 742 _c
396 742 421 739 447 735 _c
472 730 498 723 526 713 _c
_cl}_e}_d
/eight{{636 0 68 -13 568 742 _sc
318 346 _m
271 346 234 333 207 308 _c
180 283 167 249 167 205 _c
167 161 180 126 207 101 _c
234 76 271 64 318 64 _c
364 64 401 76 428 102 _c
455 127 469 161 469 205 _c
469 249 455 283 429 308 _c
402 333 365 346 318 346 _c
219 388 _m
177 398 144 418 120 447 _c
96 476 85 511 85 553 _c
85 611 105 657 147 691 _c
188 725 245 742 318 742 _c
}_e{390 742 447 725 489 691 _c
530 657 551 611 551 553 _c
551 511 539 476 515 447 _c
491 418 459 398 417 388 _c
464 377 501 355 528 323 _c
554 291 568 251 568 205 _c
568 134 546 80 503 43 _c
459 5 398 -13 318 -13 _c
237 -13 175 5 132 43 _c
89 80 68 134 68 205 _c
68 251 81 291 108 323 _c
134 355 171 377 219 388 _c
183 544 _m
183 506 194 476 218 455 _c
}_e{242 434 275 424 318 424 _c
360 424 393 434 417 455 _c
441 476 453 506 453 544 _c
453 582 441 611 417 632 _c
393 653 360 664 318 664 _c
275 664 242 653 218 632 _c
194 611 183 582 183 544 _c
_cl}_e}_d
/D{770 0 98 0 711 729 _sc
197 648 _m
197 81 _l
316 81 _l
416 81 490 103 537 149 _c
583 195 607 267 607 365 _c
607 463 583 534 537 580 _c
490 625 416 648 316 648 _c
197 648 _l
98 729 _m
301 729 _l
442 729 546 699 612 641 _c
678 582 711 490 711 365 _c
711 239 677 147 611 88 _c
545 29 441 0 301 0 _c
98 0 _l
98 729 _l
_cl}_d
/N{748 0 98 0 650 729 _sc
98 729 _m
231 729 _l
554 119 _l
554 729 _l
650 729 _l
650 0 _l
517 0 _l
194 610 _l
194 0 _l
98 0 _l
98 729 _l
_cl}_d
/O{787 0 56 -13 731 742 _sc
394 662 _m
322 662 265 635 223 582 _c
181 528 160 456 160 364 _c
160 272 181 199 223 146 _c
265 92 322 66 394 66 _c
465 66 522 92 564 146 _c
606 199 627 272 627 364 _c
627 456 606 528 564 582 _c
522 635 465 662 394 662 _c
394 742 _m
496 742 577 707 639 639 _c
700 571 731 479 731 364 _c
731 248 700 157 639 89 _c
577 21 496 -13 394 -13 _c
291 -13 209 21 148 89 _c
86 157 56 248 56 364 _c
56 479 86 571 148 639 _c
209 707 291 742 394 742 _c
_cl}_d
/a{{613 0 60 -13 522 560 _sc
343 275 _m
270 275 220 266 192 250 _c
164 233 150 205 150 165 _c
150 133 160 107 181 89 _c
202 70 231 61 267 61 _c
317 61 357 78 387 114 _c
417 149 432 196 432 255 _c
432 275 _l
343 275 _l
522 312 _m
522 0 _l
432 0 _l
432 83 _l
411 49 385 25 355 10 _c
325 -5 287 -13 243 -13 _c
187 -13 142 2 109 33 _c
76 64 60 106 60 159 _c
}_e{60 220 80 266 122 298 _c
163 329 224 345 306 345 _c
432 345 _l
432 354 _l
432 395 418 427 391 450 _c
364 472 326 484 277 484 _c
245 484 215 480 185 472 _c
155 464 127 453 100 439 _c
100 522 _l
132 534 164 544 195 550 _c
226 556 256 560 286 560 _c
365 560 424 539 463 498 _c
502 457 522 395 522 312 _c
_cl}_e}_d
/b{{635 0 91 -13 580 760 _sc
487 273 _m
487 339 473 390 446 428 _c
418 466 381 485 334 485 _c
286 485 249 466 222 428 _c
194 390 181 339 181 273 _c
181 207 194 155 222 117 _c
249 79 286 61 334 61 _c
381 61 418 79 446 117 _c
473 155 487 207 487 273 _c
181 464 _m
199 496 223 520 252 536 _c
281 552 316 560 356 560 _c
422 560 476 533 518 481 _c
559 428 580 359 580 273 _c
}_e{580 187 559 117 518 65 _c
476 13 422 -13 356 -13 _c
316 -13 281 -5 252 10 _c
223 25 199 49 181 82 _c
181 0 _l
91 0 _l
91 760 _l
181 760 _l
181 464 _l
_cl}_e}_d
/d{{635 0 55 -13 544 760 _sc
454 464 _m
454 760 _l
544 760 _l
544 0 _l
454 0 _l
454 82 _l
435 49 411 25 382 10 _c
353 -5 319 -13 279 -13 _c
213 -13 159 13 117 65 _c
75 117 55 187 55 273 _c
55 359 75 428 117 481 _c
159 533 213 560 279 560 _c
319 560 353 552 382 536 _c
411 520 435 496 454 464 _c
148 273 _m
148 207 161 155 188 117 _c
215 79 253 61 301 61 _c
}_e{348 61 385 79 413 117 _c
440 155 454 207 454 273 _c
454 339 440 390 413 428 _c
385 466 348 485 301 485 _c
253 485 215 466 188 428 _c
161 390 148 339 148 273 _c
_cl}_e}_d
/e{{615 0 55 -13 562 560 _sc
562 296 _m
562 252 _l
149 252 _l
153 190 171 142 205 110 _c
238 78 284 62 344 62 _c
378 62 412 66 444 74 _c
476 82 509 95 541 113 _c
541 28 _l
509 14 476 3 442 -3 _c
408 -9 373 -13 339 -13 _c
251 -13 182 12 131 62 _c
80 112 55 181 55 268 _c
55 357 79 428 127 481 _c
175 533 241 560 323 560 _c
397 560 455 536 498 489 _c
}_e{540 441 562 377 562 296 _c
472 322 _m
471 371 457 410 431 440 _c
404 469 368 484 324 484 _c
274 484 234 469 204 441 _c
174 413 156 373 152 322 _c
472 322 _l
_cl}_e}_d
/f{352 0 23 0 371 760 _sc
371 760 _m
371 685 _l
285 685 _l
253 685 230 678 218 665 _c
205 652 199 629 199 595 _c
199 547 _l
347 547 _l
347 477 _l
199 477 _l
199 0 _l
109 0 _l
109 477 _l
23 477 _l
23 547 _l
109 547 _l
109 585 _l
109 645 123 690 151 718 _c
179 746 224 760 286 760 _c
371 760 _l
_cl}_d
/i{278 0 94 0 184 760 _sc
94 547 _m
184 547 _l
184 0 _l
94 0 _l
94 547 _l
94 760 _m
184 760 _l
184 646 _l
94 646 _l
94 760 _l
_cl}_d
/l{278 0 94 0 184 760 _sc
94 760 _m
184 760 _l
184 0 _l
94 0 _l
94 760 _l
_cl}_d
/n{634 0 91 0 549 560 _sc
549 330 _m
549 0 _l
459 0 _l
459 327 _l
459 379 448 417 428 443 _c
408 469 378 482 338 482 _c
289 482 251 466 223 435 _c
195 404 181 362 181 309 _c
181 0 _l
91 0 _l
91 547 _l
181 547 _l
181 462 _l
202 494 227 519 257 535 _c
286 551 320 560 358 560 _c
420 560 468 540 500 501 _c
532 462 549 405 549 330 _c
_cl}_d
/o{612 0 55 -13 557 560 _sc
306 484 _m
258 484 220 465 192 427 _c
164 389 150 338 150 273 _c
150 207 163 156 191 118 _c
219 80 257 62 306 62 _c
354 62 392 80 420 118 _c
448 156 462 207 462 273 _c
462 337 448 389 420 427 _c
392 465 354 484 306 484 _c
306 560 _m
384 560 445 534 490 484 _c
534 433 557 363 557 273 _c
557 183 534 113 490 63 _c
445 12 384 -13 306 -13 _c
227 -13 165 12 121 63 _c
77 113 55 183 55 273 _c
55 363 77 433 121 484 _c
165 534 227 560 306 560 _c
_cl}_d
/p{{635 0 91 -207 580 560 _sc
181 82 _m
181 -207 _l
91 -207 _l
91 547 _l
181 547 _l
181 464 _l
199 496 223 520 252 536 _c
281 552 316 560 356 560 _c
422 560 476 533 518 481 _c
559 428 580 359 580 273 _c
580 187 559 117 518 65 _c
476 13 422 -13 356 -13 _c
316 -13 281 -5 252 10 _c
223 25 199 49 181 82 _c
487 273 _m
487 339 473 390 446 428 _c
418 466 381 485 334 485 _c
}_e{286 485 249 466 222 428 _c
194 390 181 339 181 273 _c
181 207 194 155 222 117 _c
249 79 286 61 334 61 _c
381 61 418 79 446 117 _c
473 155 487 207 487 273 _c
_cl}_e}_d
/r{411 0 91 0 411 560 _sc
411 463 _m
401 469 390 473 378 476 _c
366 478 353 480 339 480 _c
288 480 249 463 222 430 _c
194 397 181 350 181 288 _c
181 0 _l
91 0 _l
91 547 _l
181 547 _l
181 462 _l
199 495 224 520 254 536 _c
284 552 321 560 365 560 _c
371 560 378 559 386 559 _c
393 558 401 557 411 555 _c
411 463 _l
_cl}_d
/s{{521 0 54 -13 472 560 _sc
443 531 _m
443 446 _l
417 458 391 468 364 475 _c
336 481 308 485 279 485 _c
234 485 200 478 178 464 _c
156 450 145 430 145 403 _c
145 382 153 366 169 354 _c
185 342 217 330 265 320 _c
296 313 _l
360 299 405 279 432 255 _c
458 230 472 195 472 151 _c
472 100 452 60 412 31 _c
372 1 316 -13 246 -13 _c
216 -13 186 -10 154 -5 _c
}_e{122 0 89 8 54 20 _c
54 113 _l
87 95 120 82 152 74 _c
184 65 216 61 248 61 _c
290 61 323 68 346 82 _c
368 96 380 117 380 144 _c
380 168 371 187 355 200 _c
339 213 303 226 247 238 _c
216 245 _l
160 257 119 275 95 299 _c
70 323 58 356 58 399 _c
58 450 76 490 112 518 _c
148 546 200 560 268 560 _c
301 560 332 557 362 552 _c
391 547 418 540 443 531 _c
}_e{_cl}_e}_d
/t{392 0 27 0 368 702 _sc
183 702 _m
183 547 _l
368 547 _l
368 477 _l
183 477 _l
183 180 _l
183 135 189 106 201 94 _c
213 81 238 75 276 75 _c
368 75 _l
368 0 _l
276 0 _l
206 0 158 13 132 39 _c
106 65 93 112 93 180 _c
93 477 _l
27 477 _l
27 547 _l
93 547 _l
93 702 _l
183 702 _l
_cl}_d
/u{634 0 85 -13 543 560 _sc
85 216 _m
85 547 _l
175 547 _l
175 219 _l
175 167 185 129 205 103 _c
225 77 255 64 296 64 _c
344 64 383 79 411 110 _c
439 141 453 183 453 237 _c
453 547 _l
543 547 _l
543 0 _l
453 0 _l
453 84 _l
431 50 405 26 377 10 _c
348 -5 315 -13 277 -13 _c
214 -13 166 6 134 45 _c
101 83 85 140 85 216 _c
311 560 _m
311 560 _l
_cl}_d
/y{592 0 30 -207 562 547 _sc
322 -50 _m
296 -114 271 -157 247 -177 _c
223 -197 191 -207 151 -207 _c
79 -207 _l
79 -132 _l
132 -132 _l
156 -132 175 -126 189 -114 _c
203 -102 218 -75 235 -31 _c
251 9 _l
30 547 _l
125 547 _l
296 119 _l
467 547 _l
562 547 _l
322 -50 _l
_cl}_d
end readonly def

/BuildGlyph
 {exch begin
 CharStrings exch
 2 copy known not{pop /.notdef}if
 true 3 1 roll get exec
 end}_d

/BuildChar {
 1 index /Encoding get exch get
 1 index /BuildGlyph get exec
}_d

FontName currentdict end definefont pop
end
%%EndProlog
mpldict begin
-198 108 translate
1008 576 0 0 clipbox
gsave
0 0 m
1008 0 l
1008 576 l
0 576 l
cl
1.000 setgray
fill
grestore
gsave
126 63.36 m
907.2 63.36 l
907.2 506.88 l
126 506.88 l
cl
1.000 setgray
fill
grestore
1.000 setlinewidth
0 setlinejoin
0 setlinecap
[] 0 setdash
0.000 0.750 0.750 setrgbcolor
gsave
781.2 443.5 126 63.36 clipbox
161.509091 63.36 m
197.018182 63.36 l
197.018182 485.76 l
161.509091 485.76 l
cl
gsave
0.000 0.000 1.000 setrgbcolor
fill
grestore
stroke
grestore
gsave
781.2 443.5 126 63.36 clipbox
197.018182 63.36 m
232.527273 63.36 l
232.527273 164.488558 l
197.018182 164.488558 l
cl
gsave
0.000 0.000 1.000 setrgbcolor
fill
grestore
stroke
grestore
gsave
781.2 443.5 126 63.36 clipbox
232.527273 63.36 m
268.036364 63.36 l
268.036364 143.644241 l
232.527273 143.644241 l
cl
gsave
0.000 0.000 1.000 setrgbcolor
fill
grestore
stroke
grestore
gsave
781.2 443.5 126 63.36 clipbox
268.036364 63.36 m
303.545455 63.36 l
303.545455 125.220554 l
268.036364 125.220554 l
cl
gsave
0.000 0.000 1.000 setrgbcolor
fill
grestore
stroke
grestore
gsave
781.2 443.5 126 63.36 clipbox
303.545455 63.36 m
339.054545 63.36 l
339.054545 125.355033 l
303.545455 125.355033 l
cl
gsave
0.000 0.000 1.000 setrgbcolor
fill
grestore
stroke
grestore
gsave
781.2 443.5 126 63.36 clipbox
339.054545 63.36 m
374.563636 63.36 l
374.563636 116.21043 l
339.054545 116.21043 l
cl
gsave
0.000 0.000 1.000 setrgbcolor
fill
grestore
stroke
grestore
gsave
781.2 443.5 126 63.36 clipbox
374.563636 63.36 m
410.072727 63.36 l
410.072727 110.293333 l
374.563636 110.293333 l
cl
gsave
0.000 0.000 1.000 setrgbcolor
fill
grestore
stroke
grestore
gsave
781.2 443.5 126 63.36 clipbox
410.072727 63.36 m
445.581818 63.36 l
445.581818 112.848443 l
410.072727 112.848443 l
cl
gsave
0.000 0.000 1.000 setrgbcolor
fill
grestore
stroke
grestore
gsave
781.2 443.5 126 63.36 clipbox
445.581818 63.36 m
481.090909 63.36 l
481.090909 108.007182 l
445.581818 108.007182 l
cl
gsave
0.000 0.000 1.000 setrgbcolor
fill
grestore
stroke
grestore
gsave
781.2 443.5 126 63.36 clipbox
481.090909 63.36 m
516.6 63.36 l
516.6 106.796867 l
481.090909 106.796867 l
cl
gsave
0.000 0.000 1.000 setrgbcolor
fill
grestore
stroke
grestore
gsave
781.2 443.5 126 63.36 clipbox
516.6 63.36 m
552.109091 63.36 l
552.109091 105.98999 l
516.6 105.98999 l
cl
gsave
0.000 0.000 1.000 setrgbcolor
fill
grestore
stroke
grestore
gsave
781.2 443.5 126 63.36 clipbox
552.109091 63.36 m
587.618182 63.36 l
587.618182 103.300401 l
552.109091 103.300401 l
cl
gsave
0.000 0.000 1.000 setrgbcolor
fill
grestore
stroke
grestore
gsave
781.2 443.5 126 63.36 clipbox
587.618182 63.36 m
623.127273 63.36 l
623.127273 100.341853 l
587.618182 100.341853 l
cl
gsave
0.000 0.000 1.000 setrgbcolor
fill
grestore
stroke
grestore
gsave
781.2 443.5 126 63.36 clipbox
623.127273 63.36 m
658.636364 63.36 l
658.636364 102.359045 l
623.127273 102.359045 l
cl
gsave
0.000 0.000 1.000 setrgbcolor
fill
grestore
stroke
grestore
gsave
781.2 443.5 126 63.36 clipbox
658.636364 63.36 m
694.145455 63.36 l
694.145455 100.341853 l
658.636364 100.341853 l
cl
gsave
0.000 0.000 1.000 setrgbcolor
fill
grestore
stroke
grestore
gsave
781.2 443.5 126 63.36 clipbox
694.145455 63.36 m
729.654545 63.36 l
729.654545 100.072894 l
694.145455 100.072894 l
cl
gsave
0.000 0.000 1.000 setrgbcolor
fill
grestore
stroke
grestore
gsave
781.2 443.5 126 63.36 clipbox
729.654545 63.36 m
765.163636 63.36 l
765.163636 97.248825 l
729.654545 97.248825 l
cl
gsave
0.000 0.000 1.000 setrgbcolor
fill
grestore
stroke
grestore
gsave
781.2 443.5 126 63.36 clipbox
765.163636 63.36 m
800.672727 63.36 l
800.672727 102.628004 l
765.163636 102.628004 l
cl
gsave
0.000 0.000 1.000 setrgbcolor
fill
grestore
stroke
grestore
gsave
781.2 443.5 126 63.36 clipbox
800.672727 63.36 m
836.181818 63.36 l
836.181818 102.090086 l
800.672727 102.090086 l
cl
gsave
0.000 0.000 1.000 setrgbcolor
fill
grestore
stroke
grestore
gsave
781.2 443.5 126 63.36 clipbox
836.181818 63.36 m
871.690909 63.36 l
871.690909 98.997058 l
836.181818 98.997058 l
cl
gsave
0.000 0.000 1.000 setrgbcolor
fill
grestore
stroke
grestore
0.800 setlinewidth
1 setlinejoin
[] 0 setdash
0.000 setgray
gsave
/o {
gsave
newpath
translate
0.8 setlinewidth
1 setlinejoin
0 setlinecap
0 0 m
0 -3.5 l

gsave
0.000 setgray
fill
grestore
stroke
grestore
} bind def
161.509 63.36 o
grestore
/DejaVuSans findfont
10.000 scalefont
setfont
gsave
153.555966 48.766250 translate
0.000000 rotate
0.000000 0.000000 m /zero glyphshow
6.362305 0.000000 m /period glyphshow
9.541016 0.000000 m /zero glyphshow
grestore
gsave
/o {
gsave
newpath
translate
0.8 setlinewidth
1 setlinejoin
0 setlinecap
0 0 m
0 -3.5 l

gsave
0.000 setgray
fill
grestore
stroke
grestore
} bind def
303.545 63.36 o
grestore
gsave
295.592330 48.766250 translate
0.000000 rotate
0.000000 0.000000 m /zero glyphshow
6.362305 0.000000 m /period glyphshow
9.541016 0.000000 m /two glyphshow
grestore
gsave
/o {
gsave
newpath
translate
0.8 setlinewidth
1 setlinejoin
0 setlinecap
0 0 m
0 -3.5 l

gsave
0.000 setgray
fill
grestore
stroke
grestore
} bind def
445.582 63.36 o
grestore
gsave
437.628693 48.766250 translate
0.000000 rotate
0.000000 0.000000 m /zero glyphshow
6.362305 0.000000 m /period glyphshow
9.541016 0.000000 m /four glyphshow
grestore
gsave
/o {
gsave
newpath
translate
0.8 setlinewidth
1 setlinejoin
0 setlinecap
0 0 m
0 -3.5 l

gsave
0.000 setgray
fill
grestore
stroke
grestore
} bind def
587.618 63.36 o
grestore
gsave
579.665057 48.766250 translate
0.000000 rotate
0.000000 0.000000 m /zero glyphshow
6.362305 0.000000 m /period glyphshow
9.541016 0.000000 m /six glyphshow
grestore
gsave
/o {
gsave
newpath
translate
0.8 setlinewidth
1 setlinejoin
0 setlinecap
0 0 m
0 -3.5 l

gsave
0.000 setgray
fill
grestore
stroke
grestore
} bind def
729.655 63.36 o
grestore
gsave
721.701420 48.766250 translate
0.000000 rotate
0.000000 0.000000 m /zero glyphshow
6.362305 0.000000 m /period glyphshow
9.541016 0.000000 m /eight glyphshow
grestore
gsave
/o {
gsave
newpath
translate
0.8 setlinewidth
1 setlinejoin
0 setlinecap
0 0 m
0 -3.5 l

gsave
0.000 setgray
fill
grestore
stroke
grestore
} bind def
871.691 63.36 o
grestore
gsave
863.737784 48.766250 translate
0.000000 rotate
0.000000 0.000000 m /one glyphshow
6.362305 0.000000 m /period glyphshow
9.541016 0.000000 m /zero glyphshow
grestore
gsave
/o {
gsave
newpath
translate
0.8 setlinewidth
1 setlinejoin
0 setlinecap
0 0 m
-3.5 0 l

gsave
0.000 setgray
fill
grestore
stroke
grestore
} bind def
126 63.36 o
grestore
gsave
96.734375 59.563125 translate
0.000000 rotate
0.000000 0.000000 m /zero glyphshow
6.362305 0.000000 m /period glyphshow
9.541016 0.000000 m /zero glyphshow
15.903320 0.000000 m /zero glyphshow
grestore
gsave
/o {
gsave
newpath
translate
0.8 setlinewidth
1 setlinejoin
0 setlinecap
0 0 m
-3.5 0 l

gsave
0.000 setgray
fill
grestore
stroke
grestore
} bind def
126 130.6 o
grestore
gsave
96.734375 126.802858 translate
0.000000 rotate
0.000000 0.000000 m /zero glyphshow
6.362305 0.000000 m /period glyphshow
9.541016 0.000000 m /zero glyphshow
15.903320 0.000000 m /five glyphshow
grestore
gsave
/o {
gsave
newpath
translate
0.8 setlinewidth
1 setlinejoin
0 setlinecap
0 0 m
-3.5 0 l

gsave
0.000 setgray
fill
grestore
stroke
grestore
} bind def
126 197.839 o
grestore
gsave
96.734375 194.042590 translate
0.000000 rotate
0.000000 0.000000 m /zero glyphshow
6.362305 0.000000 m /period glyphshow
9.541016 0.000000 m /one glyphshow
15.903320 0.000000 m /zero glyphshow
grestore
gsave
/o {
gsave
newpath
translate
0.8 setlinewidth
1 setlinejoin
0 setlinecap
0 0 m
-3.5 0 l

gsave
0.000 setgray
fill
grestore
stroke
grestore
} bind def
126 265.079 o
grestore
gsave
96.734375 261.282323 translate
0.000000 rotate
0.000000 0.000000 m /zero glyphshow
6.362305 0.000000 m /period glyphshow
9.541016 0.000000 m /one glyphshow
15.903320 0.000000 m /five glyphshow
grestore
gsave
/o {
gsave
newpath
translate
0.8 setlinewidth
1 setlinejoin
0 setlinecap
0 0 m
-3.5 0 l

gsave
0.000 setgray
fill
grestore
stroke
grestore
} bind def
126 332.319 o
grestore
gsave
96.734375 328.522055 translate
0.000000 rotate
0.000000 0.000000 m /zero glyphshow
6.362305 0.000000 m /period glyphshow
9.541016 0.000000 m /two glyphshow
15.903320 0.000000 m /zero glyphshow
grestore
gsave
/o {
gsave
newpath
translate
0.8 setlinewidth
1 setlinejoin
0 setlinecap
0 0 m
-3.5 0 l

gsave
0.000 setgray
fill
grestore
stroke
grestore
} bind def
126 399.559 o
grestore
gsave
96.734375 395.761788 translate
0.000000 rotate
0.000000 0.000000 m /zero glyphshow
6.362305 0.000000 m /period glyphshow
9.541016 0.000000 m /two glyphshow
15.903320 0.000000 m /five glyphshow
grestore
gsave
/o {
gsave
newpath
translate
0.8 setlinewidth
1 setlinejoin
0 setlinecap
0 0 m
-3.5 0 l

gsave
0.000 setgray
fill
grestore
stroke
grestore
} bind def
126 466.798 o
grestore
gsave
96.734375 463.001520 translate
0.000000 rotate
0.000000 0.000000 m /zero glyphshow
6.362305 0.000000 m /period glyphshow
9.541016 0.000000 m /three glyphshow
15.903320 0.000000 m /zero glyphshow
grestore
gsave
90.656250 258.330938 translate
90.000000 rotate
0.000000 0.000000 m /p glyphshow
6.347656 0.000000 m /r glyphshow
10.458984 0.000000 m /o glyphshow
16.577148 0.000000 m /b glyphshow
22.924805 0.000000 m /a glyphshow
29.052734 0.000000 m /b glyphshow
35.400391 0.000000 m /i glyphshow
38.178711 0.000000 m /l glyphshow
40.957031 0.000000 m /i glyphshow
43.735352 0.000000 m /t glyphshow
47.656250 0.000000 m /y glyphshow
grestore
0 setlinejoin
2 setlinecap
[] 0 setdash
gsave
126 63.36 m
126 506.88 l
stroke
grestore
gsave
907.2 63.36 m
907.2 506.88 l
stroke
grestore
gsave
126 63.36 m
907.2 63.36 l
stroke
grestore
gsave
126 506.88 m
907.2 506.88 l
stroke
grestore
/DejaVuSans findfont
7.000 scalefont
setfont
gsave
171.474574 487.213125 translate
0.000000 rotate
0.000000 0.000000 m /zero glyphshow
4.453613 0.000000 m /period glyphshow
6.678711 0.000000 m /three glyphshow
11.132324 0.000000 m /one glyphshow
grestore
gsave
206.983665 165.941683 translate
0.000000 rotate
0.000000 0.000000 m /zero glyphshow
4.453613 0.000000 m /period glyphshow
6.678711 0.000000 m /zero glyphshow
11.132324 0.000000 m /eight glyphshow
grestore
gsave
242.492756 145.097366 translate
0.000000 rotate
0.000000 0.000000 m /zero glyphshow
4.453613 0.000000 m /period glyphshow
6.678711 0.000000 m /zero glyphshow
11.132324 0.000000 m /six glyphshow
grestore
gsave
278.001847 126.673679 translate
0.000000 rotate
0.000000 0.000000 m /zero glyphshow
4.453613 0.000000 m /period glyphshow
6.678711 0.000000 m /zero glyphshow
11.132324 0.000000 m /five glyphshow
grestore
gsave
313.510938 126.808158 translate
0.000000 rotate
0.000000 0.000000 m /zero glyphshow
4.453613 0.000000 m /period glyphshow
6.678711 0.000000 m /zero glyphshow
11.132324 0.000000 m /five glyphshow
grestore
gsave
349.020028 117.663555 translate
0.000000 rotate
0.000000 0.000000 m /zero glyphshow
4.453613 0.000000 m /period glyphshow
6.678711 0.000000 m /zero glyphshow
11.132324 0.000000 m /four glyphshow
grestore
gsave
384.529119 111.746458 translate
0.000000 rotate
0.000000 0.000000 m /zero glyphshow
4.453613 0.000000 m /period glyphshow
6.678711 0.000000 m /zero glyphshow
11.132324 0.000000 m /three glyphshow
grestore
gsave
420.038210 114.301568 translate
0.000000 rotate
0.000000 0.000000 m /zero glyphshow
4.453613 0.000000 m /period glyphshow
6.678711 0.000000 m /zero glyphshow
11.132324 0.000000 m /four glyphshow
grestore
gsave
455.547301 109.460307 translate
0.000000 rotate
0.000000 0.000000 m /zero glyphshow
4.453613 0.000000 m /period glyphshow
6.678711 0.000000 m /zero glyphshow
11.132324 0.000000 m /three glyphshow
grestore
gsave
491.056392 108.249992 translate
0.000000 rotate
0.000000 0.000000 m /zero glyphshow
4.453613 0.000000 m /period glyphshow
6.678711 0.000000 m /zero glyphshow
11.132324 0.000000 m /three glyphshow
grestore
gsave
526.565483 107.443115 translate
0.000000 rotate
0.000000 0.000000 m /zero glyphshow
4.453613 0.000000 m /period glyphshow
6.678711 0.000000 m /zero glyphshow
11.132324 0.000000 m /three glyphshow
grestore
gsave
562.074574 104.753526 translate
0.000000 rotate
0.000000 0.000000 m /zero glyphshow
4.453613 0.000000 m /period glyphshow
6.678711 0.000000 m /zero glyphshow
11.132324 0.000000 m /three glyphshow
grestore
gsave
597.583665 101.794978 translate
0.000000 rotate
0.000000 0.000000 m /zero glyphshow
4.453613 0.000000 m /period glyphshow
6.678711 0.000000 m /zero glyphshow
11.132324 0.000000 m /three glyphshow
grestore
gsave
633.092756 103.812170 translate
0.000000 rotate
0.000000 0.000000 m /zero glyphshow
4.453613 0.000000 m /period glyphshow
6.678711 0.000000 m /zero glyphshow
11.132324 0.000000 m /three glyphshow
grestore
gsave
668.601847 101.794978 translate
0.000000 rotate
0.000000 0.000000 m /zero glyphshow
4.453613 0.000000 m /period glyphshow
6.678711 0.000000 m /zero glyphshow
11.132324 0.000000 m /three glyphshow
grestore
gsave
704.110938 101.526019 translate
0.000000 rotate
0.000000 0.000000 m /zero glyphshow
4.453613 0.000000 m /period glyphshow
6.678711 0.000000 m /zero glyphshow
11.132324 0.000000 m /three glyphshow
grestore
gsave
739.620028 98.701950 translate
0.000000 rotate
0.000000 0.000000 m /zero glyphshow
4.453613 0.000000 m /period glyphshow
6.678711 0.000000 m /zero glyphshow
11.132324 0.000000 m /three glyphshow
grestore
gsave
775.129119 104.081129 translate
0.000000 rotate
0.000000 0.000000 m /zero glyphshow
4.453613 0.000000 m /period glyphshow
6.678711 0.000000 m /zero glyphshow
11.132324 0.000000 m /three glyphshow
grestore
gsave
810.638210 103.543211 translate
0.000000 rotate
0.000000 0.000000 m /zero glyphshow
4.453613 0.000000 m /period glyphshow
6.678711 0.000000 m /zero glyphshow
11.132324 0.000000 m /three glyphshow
grestore
gsave
846.147301 100.450183 translate
0.000000 rotate
0.000000 0.000000 m /zero glyphshow
4.453613 0.000000 m /period glyphshow
6.678711 0.000000 m /zero glyphshow
11.132324 0.000000 m /three glyphshow
grestore
/DejaVuSans findfont
12.000 scalefont
setfont
gsave
433.576563 512.880000 translate
0.000000 rotate
0.000000 0.000000 m /D glyphshow
9.240234 0.000000 m /i glyphshow
12.574219 0.000000 m /s glyphshow
18.826172 0.000000 m /t glyphshow
23.531250 0.000000 m /r glyphshow
28.464844 0.000000 m /i glyphshow
31.798828 0.000000 m /b glyphshow
39.416016 0.000000 m /u glyphshow
47.021484 0.000000 m /t glyphshow
51.726562 0.000000 m /i glyphshow
55.060547 0.000000 m /o glyphshow
62.402344 0.000000 m /n glyphshow
70.007812 0.000000 m /space glyphshow
73.822266 0.000000 m /o glyphshow
81.164062 0.000000 m /f glyphshow
85.388672 0.000000 m /space glyphshow
89.203125 0.000000 m /N glyphshow
98.179688 0.000000 m /o glyphshow
105.521484 0.000000 m /d glyphshow
113.138672 0.000000 m /e glyphshow
120.521484 0.000000 m /space glyphshow
124.335938 0.000000 m /O glyphshow
133.781250 0.000000 m /u glyphshow
141.386719 0.000000 m /t glyphshow
146.091797 0.000000 m /p glyphshow
153.708984 0.000000 m /u glyphshow
161.314453 0.000000 m /t glyphshow
grestore

end
showpage
